{
  "development": {
    "username": "mikael",
    "password": 123,
    "database": "userGroup",
    "host": "127.0.0.1",
    "dialect": "postgres"
  },
  "test": {
    "username": "mikael",
    "password": 123,
    "database": "remedial_test",
    "host": "127.0.0.1",
    "dialect": "postgres"
  },
  "production": {
    "username": "mikael",
    "password": 123,
    "database": "remedial_production",
    "host": "127.0.0.1",
    "dialect": "postgres"
  }
}
